A3 IO_L1P_HSWAPEN_0
A4 IO_L1N_VREF_0
C5 IO_L2P_0
A5 IO_L2N_0
D6 IO_L3P_0
C6 IO_L3N_0
B6 IO_L4P_0
A6 IO_L4N_0
C7 IO_L5P_0
A7 IO_L5N_0
B8 IO_L6P_0
A8 IO_L6N_0
D9 IO_L7P_0
C8 IO_L7N_0
C9 IO_L8P_0
A9 IO_L8N_VREF_0
E8 IO_L14P_0
F8 IO_L14N_0
G8 IO_L15P_0
F9 IO_L15N_0
G9 IO_L16P_0
H10 IO_L16N_0
E10 IO_L17P_0
F10 IO_L17N_0
G11 IO_L18P_0
H11 IO_L18N_0
D7 IO_L32P_0
D8 IO_L32N_0
D10 IO_L33P_0
C10 IO_L33N_0
B10 IO_L34P_GCLK19_0
A10 IO_L34N_GCLK18_0
C11 IO_L35P_GCLK17_0
A11 IO_L35N_GCLK16_0
D11 IO_L36P_GCLK15_0
C12 IO_L36N_GCLK14_0
B12 IO_L37P_GCLK13_0
A12 IO_L37N_GCLK12_0
C13 IO_L38P_0
A13 IO_L38N_VREF_0
E12 IO_L43P_0
D12 IO_L43N_0
H12 IO_L44P_0
F12 IO_L44N_0
F13 IO_L45P_0
D13 IO_L45N_0
H13 IO_L46P_0
G13 IO_L46N_0
E14 IO_L47P_0
F15 IO_L47N_0
F14 IO_L48P_0
H14 IO_L48N_0
D14 IO_L49P_0
C14 IO_L49N_0
B14 IO_L50P_0
A14 IO_L50N_0
C15 IO_L51P_0
A15 IO_L51N_0
D15 IO_L62P_0
C16 IO_L62N_VREF_0
B16 IO_L63P_SCP7_0
A16 IO_L63N_SCP6_0
C17 IO_L64P_SCP5_0
A17 IO_L64N_SCP4_0
B18 IO_L65P_SCP3_0
A18 IO_L65N_SCP2_0
E16 IO_L66P_SCP1_0
D17 IO_L66N_SCP0_0
C19 IO_L1P_A25_1
B20 IO_L1N_A24_VREF_1
G16 IO_L9P_1
G17 IO_L9N_1
F16 IO_L10P_1
F17 IO_L10N_1
B21 IO_L19P_1
B22 IO_L19N_1
A20 IO_L20P_1
A21 IO_L20N_1
K16 IO_L21P_1
J16 IO_L21N_1
H16 IO_L28P_1
H17 IO_L28N_VREF_1
D19 IO_L29P_A23_M1A13_1
D20 IO_L29N_A22_M1A14_1
F18 IO_L30P_A21_M1RESET_1
F19 IO_L30N_A20_M1A11_1
D21 IO_L31P_A19_M1CKE_1
D22 IO_L31N_A18_M1A12_1
C20 IO_L32P_A17_M1A8_1
C22 IO_L32N_A16_M1A9_1
G19 IO_L33P_A15_M1A10_1
F20 IO_L33N_A14_M1A4_1
H19 IO_L34P_A13_M1WE_1
H18 IO_L34N_A12_M1BA2_1
E20 IO_L35P_A11_M1A7_1
E22 IO_L35N_A10_M1A2_1
J17 IO_L36P_A9_M1BA0_1
K17 IO_L36N_A8_M1BA1_1
F21 IO_L37P_A7_M1A0_1
F22 IO_L37N_A6_M1A1_1
H20 IO_L38P_A5_M1CLK_1
J19 IO_L38N_A4_M1CLKN_1
G20 IO_L39P_M1A3_1
G22 IO_L39N_M1ODT_1
K20 IO_L40P_GCLK11_M1A5_1
K19 IO_L40N_GCLK10_M1A6_1
H21 IO_L41P_GCLK9_IRDY1_M1RASN_1
H22 IO_L41N_GCLK8_M1CASN_1
M20 IO_L42P_GCLK7_M1UDM_1
L19 IO_L42N_GCLK6_TRDY1_M1LDM_1
J20 IO_L43P_GCLK5_M1DQ4_1
J22 IO_L43N_GCLK4_M1DQ5_1
K21 IO_L44P_A3_M1DQ6_1
K22 IO_L44N_A2_M1DQ7_1
L20 IO_L45P_A1_M1LDQS_1
L22 IO_L45N_A0_M1LDQSN_1
M21 IO_L46P_FCS_B_M1DQ2_1
M22 IO_L46N_FOE_B_M1DQ3_1
N20 IO_L47P_FWE_B_M1DQ0_1
N22 IO_L47N_LDC_M1DQ1_1
P21 IO_L48P_HDC_M1DQ8_1
P22 IO_L48N_M1DQ9_1
R20 IO_L49P_M1DQ10_1
R22 IO_L49N_M1DQ11_1
T21 IO_L50P_M1UDQS_1
T22 IO_L50N_M1UDQSN_1
U20 IO_L51P_M1DQ12_1
U22 IO_L51N_M1DQ13_1
V21 IO_L52P_M1DQ14_1
V22 IO_L52N_M1DQ15_1
M19 IO_L53P_1
N19 IO_L53N_VREF_1
M16 IO_L58P_1
L15 IO_L58N_1
P19 IO_L59P_1
P20 IO_L59N_1
W20 IO_L60P_1
W22 IO_L60N_1
L17 IO_L61P_1
K18 IO_L61N_1
U19 IO_L70P_1
V20 IO_L70N_1
M17 IO_L71P_1
M18 IO_L71N_1
P17 IO_L72P_1
N16 IO_L72N_1
P18 IO_L73P_1
R19 IO_L73N_1
T19 IO_L74P_AWAKE_1
T20 IO_L74N_DOUT_BUSY_1
Y20 CMPCS_B_2
Y22 DONE_2
Y21 IO_L1P_CCLK_2
AA22 IO_L1N_M0_CMPMISO_2
AA21 IO_L2P_CMPCLK_2
AB21 IO_L2N_CMPMOSI_2
AA20 IO_L3P_D0_DIN_MISO_MISO1_2
AB20 IO_L3N_MOSI_CSI_B_MISO0_2
T18 IO_L4P_2
T17 IO_L4N_VREF_2
Y19 IO_L5P_2
AB19 IO_L5N_2
W18 IO_L6P_2
Y18 IO_L6N_2
T16 IO_L7P_2
T15 IO_L7N_2
U17 IO_L8P_2
U16 IO_L8N_2
V19 IO_L9P_2
V18 IO_L9N_2
R16 IO_L10P_2
R15 IO_L10N_2
V17 IO_L11P_2
W17 IO_L11N_2
U14 IO_L12P_D1_MISO2_2
U13 IO_L12N_D2_MISO3_2
U15 IO_L13P_M1_2
V15 IO_L13N_D10_2
AA18 IO_L14P_D11_2
AB18 IO_L14N_D12_2
Y17 IO_L15P_2
AB17 IO_L15N_2
AA14 IO_L16P_2
AB14 IO_L16N_VREF_2
Y16 IO_L17P_2/NC100
W15 IO_L17N_2/NC100
V13 IO_L18P_2
W13 IO_L18N_2
AA16 IO_L19P_2
AB16 IO_L19N_2
W14 IO_L20P_2
Y14 IO_L20N_2
Y15 IO_L21P_2
AB15 IO_L21N_2
T12 IO_L22P_2/NC100
U12 IO_L22N_2/NC100
T14 IO_L23P_2
R13 IO_L23N_2
W12 IO_L29P_GCLK3_2
Y12 IO_L29N_GCLK2_2
Y13 IO_L30P_GCLK1_D13_2
AB13 IO_L30N_GCLK0_USERCCLK_2
AA12 IO_L31P_GCLK31_D14_2
AB12 IO_L31N_GCLK30_D15_2
Y11 IO_L32P_GCLK29_2
AB11 IO_L32N_GCLK28_2
R11 IO_L40P_2
T11 IO_L40N_2
AA10 IO_L41P_2
AB10 IO_L41N_VREF_2
V11 IO_L42P_2
W11 IO_L42N_2
Y9 IO_L43P_2
AB9 IO_L43N_2
W10 IO_L44P_2
Y10 IO_L44N_2
AA8 IO_L45P_2
AB8 IO_L45N_2
W8 IO_L46P_2
V7 IO_L46N_2
W9 IO_L47P_2
Y8 IO_L47N_2
Y7 IO_L48P_D7_2
AB7 IO_L48N_RDWR_B_VREF_2
AA6 IO_L49P_D3_2
AB6 IO_L49N_D4_2
U9 IO_L50P_2
V9 IO_L50N_2
T8 IO_L51P_2/NC100
U8 IO_L51N_2/NC100
T10 IO_L52P_2/NC100
U10 IO_L52N_2/NC100
W6 IO_L53P_2/NC100
Y6 IO_L53N_2/NC100
Y5 IO_L54P_2/NC100
AB5 IO_L54N_2/NC100
AA4 IO_L57P_2
AB4 IO_L57N_2
Y3 IO_L58P_2
AB3 IO_L58N_2
R9 IO_L59P_2
R8 IO_L59N_2
T7 IO_L60P_2
R7 IO_L60N_2
W4 IO_L62P_D5_2
Y4 IO_L62N_D6_2
U6 IO_L63P_2
V5 IO_L63N_2
AA2 IO_L64P_D8_2
AB2 IO_L64N_D9_2
T6 IO_L65P_INIT_B_2
T5 IO_L65N_CSO_B_2
AA1 PROGRAM_B_2
Y2 IO_L1P_3
Y1 IO_L1N_VREF_3
W3 IO_L2P_3
W1 IO_L2N_3
P8 IO_L7P_3
P7 IO_L7N_3
P6 IO_L8P_3
P5 IO_L8N_3
T4 IO_L9P_3
T3 IO_L9N_3
U4 IO_L10P_3
V3 IO_L10N_3
N6 IO_L11P_3
N7 IO_L11N_3
M7 IO_L23P_3
M8 IO_L23N_3
R4 IO_L24P_3
P4 IO_L24N_3
M6 IO_L25P_3
L6 IO_L25N_3
P3 IO_L26P_3
N4 IO_L26N_3
M5 IO_L31P_3
M4 IO_L31N_VREF_3
V2 IO_L32P_M3DQ14_3
V1 IO_L32N_M3DQ15_3
U3 IO_L33P_M3DQ12_3
U1 IO_L33N_M3DQ13_3
T2 IO_L34P_M3UDQS_3
T1 IO_L34N_M3UDQSN_3
R3 IO_L35P_M3DQ10_3
R1 IO_L35N_M3DQ11_3
P2 IO_L36P_M3DQ8_3
P1 IO_L36N_M3DQ9_3
N3 IO_L37P_M3DQ0_3
N1 IO_L37N_M3DQ1_3
M2 IO_L38P_M3DQ2_3
M1 IO_L38N_M3DQ3_3
L3 IO_L39P_M3LDQS_3
L1 IO_L39N_M3LDQSN_3
K2 IO_L40P_M3DQ6_3
K1 IO_L40N_M3DQ7_3
J3 IO_L41P_GCLK27_M3DQ4_3
J1 IO_L41N_GCLK26_M3DQ5_3
M3 IO_L42P_GCLK25_TRDY2_M3UDM_3
L4 IO_L42N_GCLK24_M3LDM_3
K5 IO_L43P_GCLK23_M3RASN_3
K4 IO_L43N_GCLK22_IRDY2_M3CASN_3
K3 IO_L44P_GCLK21_M3A5_3
J4 IO_L44N_GCLK20_M3A6_3
K6 IO_L45P_M3A3_3
J6 IO_L45N_M3ODT_3
H4 IO_L46P_M3CLK_3
H3 IO_L46N_M3CLKN_3
H2 IO_L47P_M3A0_3
H1 IO_L47N_M3A1_3
G3 IO_L48P_M3BA0_3
G1 IO_L48N_M3BA1_3
H6 IO_L49P_M3A7_3
H5 IO_L49N_M3A2_3
F2 IO_L50P_M3WE_3
F1 IO_L50N_M3BA2_3
G4 IO_L51P_M3A10_3
F3 IO_L51N_M3A4_3
E3 IO_L52P_M3A8_3
E1 IO_L52N_M3A9_3
D2 IO_L53P_M3CKE_3
D1 IO_L53N_M3A12_3
C3 IO_L54P_M3RESET_3
C1 IO_L54N_M3A11_3
G6 IO_L55P_M3A13_3
F5 IO_L55N_M3A14_3
K7 IO_L57P_3
K8 IO_L57N_VREF_3
D5 IO_L58P_3
E4 IO_L58N_3
J7 IO_L59P_3
H8 IO_L59N_3
B2 IO_L60P_3
B1 IO_L60N_3
G7 IO_L80P_3
F7 IO_L80N_3
D3 IO_L81P_3
C4 IO_L81N_3
E5 IO_L82P_3
E6 IO_L82N_3
A2 IO_L83P_3
B3 IO_L83N_VREF_3
G15 TCK
E18 TDI
C18 TMS
A19 TDO
P16 VFS
P15 RFUSE
R17 VBATT
N15 SUSPEND
A1 GND
A22 GND
AA13 GND
AA17 GND
AA5 GND
AA9 GND
AB1 GND
AB22 GND
B13 GND
B17 GND
B5 GND
B9 GND
D18 GND
D4 GND
E11 GND
E15 GND
E2 GND
E21 GND
E7 GND
G18 GND
G5 GND
H7 GND
J11 GND
J13 GND
J15 GND
J2 GND
J21 GND
J9 GND
K10 GND
K12 GND
K14 GND
L11 GND
L13 GND
L18 GND
L5 GND
L9 GND
M10 GND
M12 GND
M14 GND
N11 GND
N13 GND
N17 GND
N2 GND
N21 GND
N9 GND
P10 GND
P12 GND
P14 GND
R18 GND
R5 GND
U2 GND
U21 GND
U7 GND
V10 GND
V14 GND
V4 GND
W16 GND
W19 GND
W7 GND
D16 VCCAUX
F11 VCCAUX
G12 VCCAUX
H15 VCCAUX
H9 VCCAUX
K15 VCCAUX
L8 VCCAUX
M15 VCCAUX
N8 VCCAUX
R10 VCCAUX
R12 VCCAUX
R6 VCCAUX
U11 VCCAUX
V6 VCCAUX
J10 VCCINT
J12 VCCINT
J14 VCCINT
J8 VCCINT
K11 VCCINT
K13 VCCINT
K9 VCCINT
L10 VCCINT
L12 VCCINT
L14 VCCINT
M11 VCCINT
M13 VCCINT
M9 VCCINT
N10 VCCINT
N12 VCCINT
N14 VCCINT
P11 VCCINT
P13 VCCINT
P9 VCCINT
R14 VCCINT
B11 VCCO_0
B15 VCCO_0
B19 VCCO_0
B4 VCCO_0
B7 VCCO_0
E13 VCCO_0
E17 VCCO_0
E9 VCCO_0
G10 VCCO_0
G14 VCCO_0
C21 VCCO_1
E19 VCCO_1
G21 VCCO_1
J18 VCCO_1
L16 VCCO_1
L21 VCCO_1
N18 VCCO_1
R21 VCCO_1
U18 VCCO_1
W21 VCCO_1
AA11 VCCO_2
AA15 VCCO_2
AA19 VCCO_2
AA3 VCCO_2
AA7 VCCO_2
T13 VCCO_2
T9 VCCO_2
V12 VCCO_2
V16 VCCO_2
V8 VCCO_2
W5 VCCO_2
C2 VCCO_3
F4 VCCO_3
F6 VCCO_3
G2 VCCO_3
J5 VCCO_3
L2 VCCO_3
L7 VCCO_3
N5 VCCO_3
R2 VCCO_3
U5 VCCO_3
W2 VCCO_3

